…
**The data are still a bit not so user friendly. Why?**

### `separate()`

``` r
fertility_tidy %>% separate(year_variable, into=c("year", "variable"), sep="_")
```

    ## Warning: Expected 2 pieces. Additional pieces discarded in 112 rows [2, 4, 6, 8,
    ## 10, 12, 14, 16, 18, 20, 22, 24, 26, 28, 30, 32, 34, 36, 38, 40, ...].

    ## # A tibble: 224 x 4
    ##    country year  variable  fertility
    ##    <chr>   <chr> <chr>         <dbl>
    ##  1 Germany 1960  fertility      2.41
    ##  2 Germany 1960  life          69.3 
    ##  3 Germany 1961  fertility      2.44
    ##  4 Germany 1961  life          69.8 
    ##  5 Germany 1962  fertility      2.47
    ##  6 Germany 1962  life          70.0 
    ##  7 Germany 1963  fertility      2.49
    ##  8 Germany 1963  life          70.1 
    ##  9 Germany 1964  fertility      2.49
    ## 10 Germany 1964  life          70.7 
    ## # … with 214 more rows

What happened? What did we lose?

``` r
fertility_tidy <- fertility_tidy %>% 
  separate(year_variable, into=c("year", "variable"), sep="_", extra = "merge")
fertility_tidy
```

    ## # A tibble: 224 x 4
    ##    country year  variable        fertility
    ##    <chr>   <chr> <chr>               <dbl>
    ##  1 Germany 1960  fertility            2.41
    ##  2 Germany 1960  life_expectancy     69.3 
    ##  3 Germany 1961  fertility            2.44
    ##  4 Germany 1961  life_expectancy     69.8 
    ##  5 Germany 1962  fertility            2.47
    ##  6 Germany 1962  life_expectancy     70.0 
    ##  7 Germany 1963  fertility            2.49
    ##  8 Germany 1963  life_expectancy     70.1 
    ##  9 Germany 1964  fertility            2.49
    ## 10 Germany 1964  life_expectancy     70.7 
    ## # … with 214 more rows
…
### `unite()`

The function `unite()` is the opposite of `separate()`. Its job is to
combine multiple columns into a single column. It’s less oftenly used
than `separate()`, but nevertheless handy to know.

Want to go back to our original data frame?

``` r
fertility_tidy %>% unite(name, year, variable)
```

    ## # A tibble: 224 x 3
    ##    country name                 fertility
    ##    <chr>   <chr>                    <dbl>
    ##  1 Germany 1960_fertility            2.41
    ##  2 Germany 1960_life_expectancy     69.3 
    ##  3 Germany 1961_fertility            2.44
    ##  4 Germany 1961_life_expectancy     69.8 
    ##  5 Germany 1962_fertility            2.47
    ##  6 Germany 1962_life_expectancy     70.0 
    ##  7 Germany 1963_fertility            2.49
    ##  8 Germany 1963_life_expectancy     70.1 
    ##  9 Germany 1964_fertility            2.49
    ## 10 Germany 1964_life_expectancy     70.7 
    ## # … with 214 more rows
…
